lab3/testbench/waveform.vcd
$version Generated by VerilatedVcd $end
$timescale 1s $end

 $scope module TOP $end
  $var wire  1 A! clk $end
  $var wire 32 C! r[0] [31:0] $end
  $var wire 32 M! r[10] [31:0] $end
  $var wire 32 N! r[11] [31:0] $end
  $var wire 32 O! r[12] [31:0] $end
  $var wire 32 P! r[13] [31:0] $end
  $var wire 32 Q! r[14] [31:0] $end
  $var wire 32 R! r[15] [31:0] $end
  $var wire 32 S! r[16] [31:0] $end
  $var wire 32 T! r[17] [31:0] $end
  $var wire 32 U! r[18] [31:0] $end
  $var wire 32 V! r[19] [31:0] $end
  $var wire 32 D! r[1] [31:0] $end
  $var wire 32 W! r[20] [31:0] $end
  $var wire 32 X! r[21] [31:0] $end
  $var wire 32 Y! r[22] [31:0] $end
  $var wire 32 Z! r[23] [31:0] $end
  $var wire 32 [! r[24] [31:0] $end
  $var wire 32 \! r[25] [31:0] $end
  $var wire 32 ]! r[26] [31:0] $end
  $var wire 32 ^! r[27] [31:0] $end
  $var wire 32 _! r[28] [31:0] $end
  $var wire 32 `! r[29] [31:0] $end
  $var wire 32 E! r[2] [31:0] $end
  $var wire 32 a! r[30] [31:0] $end
  $var wire 32 b! r[31] [31:0] $end
  $var wire 32 F! r[3] [31:0] $end
  $var wire 32 G! r[4] [31:0] $end
  $var wire 32 H! r[5] [31:0] $end
  $var wire 32 I! r[6] [31:0] $end
  $var wire 32 J! r[7] [31:0] $end
  $var wire 32 K! r[8] [31:0] $end
  $var wire 32 L! r[9] [31:0] $end
  $var wire  1 B! start $end
  $scope module PipelineCPU $end
   $var wire  4 ?! EXE_ALUCtl [3:0] $end
   $var wire  2 1 EXE_ALUOp [1:0] $end
   $var wire 32 g! EXE_ALUOut [31:0] $end
   $var wire  1 . EXE_ALUSrc $end
   $var wire 32 >! EXE_alu_s2 [31:0] $end
   $var wire  1 * EXE_branch $end
   $var wire  1 h! EXE_condition $end
   $var wire 32 ' EXE_imm [31:0] $end
   $var wire 32 2 EXE_imm_sl [31:0] $end
   $var wire 32 ( EXE_inst [31:0] $end
   $var wire  1 0 EXE_jump $end
   $var wire  1 + EXE_memRead $end
   $var wire  1 - EXE_memWrite $end
   $var wire  1 , EXE_memtoReg $end
   $var wire 32 % EXE_pc [31:0] $end
   $var wire 32 ) EXE_pc_a4 [31:0] $end
   $var wire 32 3 EXE_pc_aimm [31:0] $end
   $var wire 32 =! EXE_readData1 [31:0] $end
   $var wire 32 & EXE_readData2 [31:0] $end
   $var wire  1 / EXE_regWrite $end
   $var wire  2 :! ID_ALUOp [1:0] $end
   $var wire  1 7! ID_ALUSrc $end
   $var wire  1 3! ID_branch $end
   $var wire 32 f! ID_imm [31:0] $end
   $var wire 32 <! ID_inst [31:0] $end
   $var wire  1 9! ID_jump $end
   $var wire  1 4! ID_memRead $end
   $var wire  1 6! ID_memWrite $end
   $var wire  1 5! ID_memtoReg $end
   $var wire 32 # ID_pc [31:0] $end
   $var wire 32 $ ID_pc_a4 [31:0] $end
   $var wire 32 d! ID_readData1 [31:0] $end
   $var wire 32 e! ID_readData2 [31:0] $end
   $var wire  1 8! ID_regWrite $end
   $var wire 32 i IF_inst [31:0] $end
   $var wire 32 4 MEM_ALUOut [31:0] $end
   $var wire  1 8 MEM_branch $end
   $var wire  1 > MEM_condition $end
   $var wire 32 6 MEM_inst [31:0] $end
   $var wire  1 = MEM_jump $end
   $var wire  1 9 MEM_memRead $end
   $var wire  1 ; MEM_memWrite $end
   $var wire  1 : MEM_memtoReg $end
   $var wire 32 7 MEM_pc_a4 [31:0] $end
   $var wire 32 i! MEM_readData [31:0] $end
   $var wire 32 5 MEM_readData2 [31:0] $end
   $var wire  1 < MEM_regWrite $end
   $var wire 32 C WB_ALUOut [31:0] $end
   $var wire 32 D WB_inst [31:0] $end
   $var wire  1 A WB_jump $end
   $var wire  1 @ WB_memtoReg $end
   $var wire 32 E WB_pc_a4 [31:0] $end
   $var wire 32 B WB_readData [31:0] $end
   $var wire  1 ? WB_regWrite $end
   $var wire 32 F WB_writeData [31:0] $end
   $var wire  1 A! clk $end
   $var wire 32 h pc_a4 [31:0] $end
   $var wire 32 c! pc_i [31:0] $end
   $var wire 32 g pc_o [31:0] $end
   $var wire 32 C! r[0] [31:0] $end
   $var wire 32 M! r[10] [31:0] $end
   $var wire 32 N! r[11] [31:0] $end
   $var wire 32 O! r[12] [31:0] $end
   $var wire 32 P! r[13] [31:0] $end
   $var wire 32 Q! r[14] [31:0] $end
   $var wire 32 R! r[15] [31:0] $end
   $var wire 32 S! r[16] [31:0] $end
   $var wire 32 T! r[17] [31:0] $end
   $var wire 32 U! r[18] [31:0] $end
   $var wire 32 V! r[19] [31:0] $end
   $var wire 32 D! r[1] [31:0] $end
   $var wire 32 W! r[20] [31:0] $end
   $var wire 32 X! r[21] [31:0] $end
   $var wire 32 Y! r[22] [31:0] $end
   $var wire 32 Z! r[23] [31:0] $end
   $var wire 32 [! r[24] [31:0] $end
   $var wire 32 \! r[25] [31:0] $end
   $var wire 32 ]! r[26] [31:0] $end
   $var wire 32 ^! r[27] [31:0] $end
   $var wire 32 _! r[28] [31:0] $end
   $var wire 32 `! r[29] [31:0] $end
   $var wire 32 E! r[2] [31:0] $end
   $var wire 32 a! r[30] [31:0] $end
   $var wire 32 b! r[31] [31:0] $end
   $var wire 32 F! r[3] [31:0] $end
   $var wire 32 G! r[4] [31:0] $end
   $var wire 32 H! r[5] [31:0] $end
   $var wire 32 I! r[6] [31:0] $end
   $var wire 32 J! r[7] [31:0] $end
   $var wire 32 K! r[8] [31:0] $end
   $var wire 32 L! r[9] [31:0] $end
   $var wire  1 B! start $end
   $scope module EXE_MEM_control_reg $end
    $var wire  1 A! clk $end
    $var wire  7 b i [6:0] $end
    $var wire  7 G o [6:0] $end
    $var wire  1 B! rst $end
    $var wire 32 p! size [31:0] $end
   $upscope $end
   $scope module EXE_MEM_reg $end
    $var wire  1 A! clk $end
    $var wire 128 c i [127:0] $end
    $var wire 128 H o [127:0] $end
    $var wire  1 B! rst $end
    $var wire 32 q! size [31:0] $end
   $upscope $end
   $scope module ID_EXE_control_reg $end
    $var wire  1 A! clk $end
    $var wire  9 ;! i [8:0] $end
    $var wire  9 L o [8:0] $end
    $var wire  1 B! rst $end
    $var wire 32 r! size [31:0] $end
   $upscope $end
   $scope module ID_EXE_reg $end
    $var wire  1 A! clk $end
    $var wire 192 j! i [191:0] $end
    $var wire 192 M o [191:0] $end
    $var wire  1 B! rst $end
    $var wire 32 s! size [31:0] $end
   $upscope $end
   $scope module IF_ID_reg $end
    $var wire  1 A! clk $end
    $var wire 96 j i [95:0] $end
    $var wire 96 S o [95:0] $end
    $var wire  1 B! rst $end
    $var wire 32 t! size [31:0] $end
   $upscope $end
   $scope module MEM_WB_control_reg $end
    $var wire  1 A! clk $end
    $var wire  3 V i [2:0] $end
    $var wire  3 W o [2:0] $end
    $var wire  1 B! rst $end
    $var wire 32 u! size [31:0] $end
   $upscope $end
   $scope module MEM_WB_reg $end
    $var wire  1 A! clk $end
    $var wire 128 m i [127:0] $end
    $var wire 128 X o [127:0] $end
    $var wire  1 B! rst $end
    $var wire 32 q! size [31:0] $end
   $upscope $end
   $scope module PC_Mux $end
    $var wire 32 c! out [31:0] $end
    $var wire 32 h s0 [31:0] $end
    $var wire 32 3 s1 [31:0] $end
    $var wire 32 3 s2 [31:0] $end
    $var wire 32 g! s3 [31:0] $end
    $var wire  1 = sel1 $end
    $var wire  1 \ sel2 $end
    $var wire 32 v! size [31:0] $end
   $upscope $end
   $scope module adder_pc_aimm $end
    $var wire 32 % a [31:0] $end
    $var wire 32 2 b [31:0] $end
    $var wire 32 3 sum [31:0] $end
   $upscope $end
   $scope module alu $end
    $var wire 32 =! A [31:0] $end
    $var wire 32 g! ALUOut [31:0] $end
    $var wire  4 ?! ALUctl [3:0] $end
    $var wire 32 >! B [31:0] $end
    $var wire  1 h! condition $end
   $upscope $end
   $scope module control $end
    $var wire  2 :! ALUOp [1:0] $end
    $var wire  1 7! ALUSrc $end
    $var wire  1 3! branch $end
    $var wire  1 9! jump $end
    $var wire  1 4! memRead $end
    $var wire  1 6! memWrite $end
    $var wire  1 5! memtoReg $end
    $var wire  7 @! opcode [6:0] $end
    $var wire  1 8! regWrite $end
   $upscope $end
   $scope module dataMemory $end
    $var wire 32 4 address [31:0] $end
    $var wire  1 A! clk $end
    $var wire  1 9 memRead $end
    $var wire  1 ; memWrite $end
    $var wire 32 i! readData [31:0] $end
    $var wire  1 B! rst $end
    $var wire 32 5 writeData [31:0] $end
   $upscope $end
   $scope module immGen $end
    $var wire 32 f! imm [31:0] $end
    $var wire 32 <! inst [31:0] $end
    $var wire  7 @! opcode [6:0] $end
   $upscope $end
   $scope module inst_mem $end
    $var wire 32 i inst [31:0] $end
    $var wire 32 g readAddr [31:0] $end
   $upscope $end
   $scope module m_ALUCtrl $end
    $var wire  4 ?! ALUCtl [3:0] $end
    $var wire  2 1 ALUOp [1:0] $end
    $var wire  3 ^ funct3 [2:0] $end
    $var wire  1 ] funct7 $end
   $upscope $end
   $scope module mux_alu_src $end
    $var wire 32 >! out [31:0] $end
    $var wire 32 & s0 [31:0] $end
    $var wire 32 ' s1 [31:0] $end
    $var wire  1 . sel $end
    $var wire 32 v! size [31:0] $end
   $upscope $end
   $scope module mux_writeData $end
    $var wire 32 F out [31:0] $end
    $var wire 32 C s0 [31:0] $end
    $var wire 32 B s1 [31:0] $end
    $var wire 32 E s2 [31:0] $end
    $var wire 32 E s3 [31:0] $end
    $var wire  1 A sel1 $end
    $var wire  1 @ sel2 $end
    $var wire 32 v! size [31:0] $end
   $upscope $end
   $scope module pc $end
    $var wire  1 A! clk $end
    $var wire 32 c! pc_i [31:0] $end
    $var wire 32 g pc_o [31:0] $end
    $var wire  1 B! rst $end
   $upscope $end
   $scope module pc_add $end
    $var wire 32 g a [31:0] $end
    $var wire 32 w! b [31:0] $end
    $var wire 32 h sum [31:0] $end
   $upscope $end
   $scope module register $end
    $var wire  1 A! clk $end
    $var wire 32 d! readData1 [31:0] $end
    $var wire 32 e! readData2 [31:0] $end
    $var wire  5 _ readReg1 [4:0] $end
    $var wire  5 ` readReg2 [4:0] $end
    $var wire  1 ? regWrite $end
    $var wire 32 q regs[0] [31:0] $end
    $var wire 32 { regs[10] [31:0] $end
    $var wire 32 | regs[11] [31:0] $end
    $var wire 32 } regs[12] [31:0] $end
    $var wire 32 ~ regs[13] [31:0] $end
    $var wire 32 !! regs[14] [31:0] $end
    $var wire 32 "! regs[15] [31:0] $end
    $var wire 32 #! regs[16] [31:0] $end
    $var wire 32 $! regs[17] [31:0] $end
    $var wire 32 %! regs[18] [31:0] $end
    $var wire 32 &! regs[19] [31:0] $end
    $var wire 32 r regs[1] [31:0] $end
    $var wire 32 '! regs[20] [31:0] $end
    $var wire 32 (! regs[21] [31:0] $end
    $var wire 32 )! regs[22] [31:0] $end
    $var wire 32 *! regs[23] [31:0] $end
    $var wire 32 +! regs[24] [31:0] $end
    $var wire 32 ,! regs[25] [31:0] $end
    $var wire 32 -! regs[26] [31:0] $end
    $var wire 32 .! regs[27] [31:0] $end
    $var wire 32 /! regs[28] [31:0] $end
    $var wire 32 0! regs[29] [31:0] $end
    $var wire 32 s regs[2] [31:0] $end
    $var wire 32 1! regs[30] [31:0] $end
    $var wire 32 2! regs[31] [31:0] $end
    $var wire 32 t regs[3] [31:0] $end
    $var wire 32 u regs[4] [31:0] $end
    $var wire 32 v regs[5] [31:0] $end
    $var wire 32 w regs[6] [31:0] $end
    $var wire 32 x regs[7] [31:0] $end
    $var wire 32 y regs[8] [31:0] $end
    $var wire 32 z regs[9] [31:0] $end
    $var wire  1 B! rst $end
    $var wire 32 F writeData [31:0] $end
    $var wire  5 a writeReg [4:0] $end
   $upscope $end
   $scope module shiftLeftOne $end
    $var wire 32 ' i [31:0] $end
    $var wire 32 2 o [31:0] $end
   $upscope $end
  $upscope $end
 $upscope $end
$enddefinitions $end


#0
b00000000000000000000000000000000 #
b00000000000000000000000000000000 $
b00000000000000000000000000000000 %
b00000000000000000000000000000000 &
b00000000000000000000000000000000 '
b00000000000000000000000000000000 (
b00000000000000000000000000000000 )
0*
0+
0,
0-
0.
0/
00
b00 1
b00000000000000000000000000000000 2
b00000000000000000000000000000000 3
b00000000000000000000000000000000 4
b00000000000000000000000000000000 5
b00000000000000000000000000000000 6
b00000000000000000000000000000000 7
08
09
0:
0;
0<
0=
0>
0?
0@
0A
b00000000000000000000000000000000 B
b00000000000000000000000000000000 C
b00000000000000000000000000000000 D
b00000000000000000000000000000000 E
b00000000000000000000000000000000 F
b0000000 G
b00000000000000000000000000000000000000000000000000000000000000000000000000000000000000000000000000000000000000000000000000000000 H
b000000000 L
b000000000000000000000000000000000000000000000000000000000000000000000000000000000000000000000000000000000000000000000000000000000000000000000000000000000000000000000000000000000000000000000000 M
b000000000000000000000000000000000000000000000000000000000000000000000000000000000000000000000000 S
b000 V
b000 W
b00000000000000000000000000000000000000000000000000000000000000000000000000000000000000000000000000000000000000000000000000000000 X
0\
0]
b000 ^
b00000 _
b00000 `
b00000 a
b0000000 b
b00000000000000000000000000000000000000000000000000000000000000000000000000000000000000000000000000000000000000000000000000000000 c
b00000000000000000000000000000000 g
b00000000000000000000000000000100 h
b01100011111100000000001010010011 i
b000000000000000000000000000000000110001111110000000000101001001100000000000000000000000000000100 j
b00000000000000000000000000000000000000000000000000000000000000000000000000000000000000000000000000000000000000000000000000000000 m
b00000000000000000000000000000000 q
b00000000000000000000000000000000 r
b00000000000000000000000000000000 s
b00000000000000000000000000000000 t
b00000000000000000000000000000000 u
b00000000000000000000000000000000 v
b00000000000000000000000000000000 w
b00000000000000000000000000000000 x
b00000000000000000000000000000000 y
b00000000000000000000000000000000 z
b00000000000000000000000000000000 {
b00000000000000000000000000000000 |
b00000000000000000000000000000000 }
b00000000000000000000000000000000 ~
b00000000000000000000000000000000 !!
b00000000000000000000000000000000 "!
b00000000000000000000000000000000 #!
b00000000000000000000000000000000 $!
b00000000000000000000000000000000 %!
b00000000000000000000000000000000 &!
b00000000000000000000000000000000 '!
b00000000000000000000000000000000 (!
b00000000000000000000000000000000 )!
b00000000000000000000000000000000 *!
b00000000000000000000000000000000 +!
b00000000000000000000000000000000 ,!
b00000000000000000000000000000000 -!
b00000000000000000000000000000000 .!
b00000000000000000000000000000000 /!
b00000000000000000000000000000000 0!
b00000000000000000000000000000000 1!
b00000000000000000000000000000000 2!
03!
04!
05!
06!
07!
08!
09!
b00 :!
b000000000 ;!
b00000000000000000000000000000000 <!
b00000000000000000000000000000000 =!
b00000000000000000000000000000000 >!
b0010 ?!
b0000000 @!
0A!
1B!
b00000000000000000000000000000000 C!
b00000000000000000000000000000000 D!
b00000000000000000000000000000000 E!
b00000000000000000000000000000000 F!
b00000000000000000000000000000000 G!
b00000000000000000000000000000000 H!
b00000000000000000000000000000000 I!
b00000000000000000000000000000000 J!
b00000000000000000000000000000000 K!
b00000000000000000000000000000000 L!
b00000000000000000000000000000000 M!
b00000000000000000000000000000000 N!
b00000000000000000000000000000000 O!
b00000000000000000000000000000000 P!
b00000000000000000000000000000000 Q!
b00000000000000000000000000000000 R!
b00000000000000000000000000000000 S!
b00000000000000000000000000000000 T!
b00000000000000000000000000000000 U!
b00000000000000000000000000000000 V!
b00000000000000000000000000000000 W!
b00000000000000000000000000000000 X!
b00000000000000000000000000000000 Y!
b00000000000000000000000000000000 Z!
b00000000000000000000000000000000 [!
b00000000000000000000000000000000 \!
b00000000000000000000000000000000 ]!
b00000000000000000000000000000000 ^!
b00000000000000000000000000000000 _!
b00000000000000000000000000000000 `!
b00000000000000000000000000000000 a!
b00000000000000000000000000000000 b!
b00000000000000000000000000000100 c!
b00000000000000000000000000000000 d!
b00000000000000000000000000000000 e!
b00000000000000000000000000000000 f!
b00000000000000000000000000000000 g!
0h!
b00000000000000000000000000000000 i!
b000000000000000000000000000000000000000000000000000000000000000000000000000000000000000000000000000000000000000000000000000000000000000000000000000000000000000000000000000000000000000000000000 j!
b00000000000000000000000000000111 p!
b00000000000000000000000010000000 q!
b00000000000000000000000000001001 r!
b00000000000000000000000011000000 s!
b00000000000000000000000001100000 t!
b00000000000000000000000000000011 u!
b00000000000000000000000000100000 v!
b00000000000000000000000000000100 w!
#1
b00000000000000000000000010000000 s
1A!
0B!
b00000000000000000000000010000000 E!
#2
0A!
1B!
#3
b00000000000000000000000000000100 $
b000000000000000000000000000000000110001111110000000000101001001100000000000000000000000000000100 S
b11111 `
b00000000000000000000000000000100 g
b00000000000000000000000000001000 h
b00000111100000000000001100010011 i
b000000000000000000000000000001000000011110000000000000110001001100000000000000000000000000001000 j
17!
18!
b11 :!
b000110110 ;!
b01100011111100000000001010010011 <!
b0010011 @!
1A!
b00000000000000000000000000001000 c!
b00000000000000000000011000111111 f!
b000000000000000000000000000000000000000000000000000000000000000000000000000000000000000000000000000000000000000000000110001111110110001111110000000000101001001100000000000000000000000000000100 j!
#4
0A!
#5
b00000000000000000000000000000100 #
b00000000000000000000000000001000 $
b00000000000000000000011000111111 '
b01100011111100000000001010010011 (
b00000000000000000000000000000100 )
1.
1/
b11 1
b00000000000000000000110001111110 2
b00000000000000000000110001111110 3
b000110110 L
b000000000000000000000000000000000000000000000000000000000000000000000000000000000000000000000000000000000000000000000110001111110110001111110000000000101001001100000000000000000000000000000100 M
b000000000000000000000000000001000000011110000000000000110001001100000000000000000000000000001000 S
1]
b11000 `
b0000100 b
b00000000000000000000011000111111000000000000000000000000000000000110001111110000000000101001001100000000000000000000000000000100 c
b00000000000000000000000000001000 g
b00000000000000000000000000001100 h
b00000000000000000000000000010011 i
b000000000000000000000000000010000000000000000000000000000001001100000000000000000000000000001100 j
b00000111100000000000001100010011 <!
b00000000000000000000011000111111 >!
1A!
b00000000000000000000000000001100 c!
b00000000000000000000000001111000 f!
b00000000000000000000011000111111 g!
b000000000000000000000000000001000000000000000000000000000000000000000000000000000000000000000000000000000000000000000000011110000000011110000000000000110001001100000000000000000000000000001000 j!
#6
0A!
#7
b00000000000000000000000000001000 #
b00000000000000000000000000001100 $
b00000000000000000000000000000100 %
b00000000000000000000000001111000 '
b00000111100000000000001100010011 (
b00000000000000000000000000001000 )
b00000000000000000000000011110000 2
b00000000000000000000000011110100 3
b00000000000000000000011000111111 4
b01100011111100000000001010010011 6
b00000000000000000000000000000100 7
1<
b0000100 G
b00000000000000000000011000111111000000000000000000000000000000000110001111110000000000101001001100000000000000000000000000000100 H
b000000000000000000000000000001000000000000000000000000000000000000000000000000000000000000000000000000000000000000000000011110000000011110000000000000110001001100000000000000000000000000001000 M
b000000000000000000000000000010000000000000000000000000000001001100000000000000000000000000001100 S
b100 V
0]
b00000 `
b00000000000000000000000001111000000000000000000000000000000000000000011110000000000000110001001100000000000000000000000000001000 c
b00000000000000000000000000001100 g
b00000000000000000000000000010000 h
b000000000000000000000000000011000000000000000000000000000001001100000000000000000000000000010000 j
b00000000000000000000000000000000000000000000000000000110001111110110001111110000000000101001001100000000000000000000000000000100 m
b00000000000000000000000000010011 <!
b00000000000000000000000001111000 >!
1A!
b00000000000000000000000000010000 c!
b00000000000000000000000000000000 f!
b00000000000000000000000001111000 g!
b000000000000000000000000000010000000000000000000000000000000000000000000000000000000000000000000000000000000000000000000000000000000000000000000000000000001001100000000000000000000000000001100 j!
#8
0A!
#9
b00000000000000000000000000001100 #
b00000000000000000000000000010000 $
b00000000000000000000000000001000 %
b00000000000000000000000000000000 '
b00000000000000000000000000010011 (
b00000000000000000000000000001100 )
b00000000000000000000000000000000 2
b00000000000000000000000000001000 3
b00000000000000000000000001111000 4
b00000111100000000000001100010011 6
b00000000000000000000000000001000 7
1?
b00000000000000000000011000111111 C
b01100011111100000000001010010011 D
b00000000000000000000000000000100 E
b00000000000000000000011000111111 F
b00000000000000000000000001111000000000000000000000000000000000000000011110000000000000110001001100000000000000000000000000001000 H
b000000000000000000000000000010000000000000000000000000000000000000000000000000000000000000000000000000000000000000000000000000000000000000000000000000000001001100000000000000000000000000001100 M
b000000000000000000000000000011000000000000000000000000000001001100000000000000000000000000010000 S
b100 W
b00000000000000000000000000000000000000000000000000000110001111110110001111110000000000101001001100000000000000000000000000000100 X
b00101 a
b00000000000000000000000000000000000000000000000000000000000000000000000000000000000000000001001100000000000000000000000000001100 c
b00000000000000000000000000010000 g
b00000000000000000000000000010100 h
b000000000000000000000000000100000000000000000000000000000001001100000000000000000000000000010100 j
b00000000000000000000000000000000000000000000000000000000011110000000011110000000000000110001001100000000000000000000000000001000 m
b00000000000000000000000000000000 >!
1A!
b00000000000000000000000000010100 c!
b00000000000000000000000000000000 g!
b000000000000000000000000000011000000000000000000000000000000000000000000000000000000000000000000000000000000000000000000000000000000000000000000000000000001001100000000000000000000000000010000 j!
#10
b00000000000000000000011000111111 v
0A!
b00000000000000000000011000111111 H!
#11
b00000000000000000000000000010000 #
b00000000000000000000000000010100 $
b00000000000000000000000000001100 %
b00000000000000000000000000010000 )
b00000000000000000000000000001100 3
b00000000000000000000000000000000 4
b00000000000000000000000000010011 6
b00000000000000000000000000001100 7
b00000000000000000000000001111000 C
b00000111100000000000001100010011 D
b00000000000000000000000000001000 E
b00000000000000000000000001111000 F
b00000000000000000000000000000000000000000000000000000000000000000000000000000000000000000001001100000000000000000000000000001100 H
b000000000000000000000000000011000000000000000000000000000000000000000000000000000000000000000000000000000000000000000000000000000000000000000000000000000001001100000000000000000000000000010000 M
b000000000000000000000000000100000000000000000000000000000001001100000000000000000000000000010100 S
b00000000000000000000000000000000000000000000000000000000011110000000011110000000000000110001001100000000000000000000000000001000 X
b00110 a
b00000000000000000000000000000000000000000000000000000000000000000000000000000000000000000001001100000000000000000000000000010000 c
b00000000000000000000000000010100 g
b00000000000000000000000000011000 h
b00000000011000101000001110110011 i
b000000000000000000000000000101000000000001100010100000111011001100000000000000000000000000011000 j
b00000000000000000000000000000000000000000000000000000000000000000000000000000000000000000001001100000000000000000000000000001100 m
1A!
b00000000000000000000000000011000 c!
b000000000000000000000000000100000000000000000000000000000000000000000000000000000000000000000000000000000000000000000000000000000000000000000000000000000001001100000000000000000000000000010100 j!
#12
b00000000000000000000000001111000 w
0A!
b00000000000000000000000001111000 I!
#13
b00000000000000000000000000010100 #
b00000000000000000000000000011000 $
b00000000000000000000000000010000 %
b00000000000000000000000000010100 )
b00000000000000000000000000010000 3
b00000000000000000000000000010000 7
b00000000000000000000000000000000 C
b00000000000000000000000000010011 D
b00000000000000000000000000001100 E
b00000000000000000000000000000000 F
b00000000000000000000000000000000000000000000000000000000000000000000000000000000000000000001001100000000000000000000000000010000 H
b000000000000000000000000000100000000000000000000000000000000000000000000000000000000000000000000000000000000000000000000000000000000000000000000000000000001001100000000000000000000000000010100 M
b000000000000000000000000000101000000000001100010100000111011001100000000000000000000000000011000 S
b00000000000000000000000000000000000000000000000000000000000000000000000000000000000000000001001100000000000000000000000000001100 X
b00101 _
b00110 `
b00000 a
b00000000000000000000000000000000000000000000000000000000000000000000000000000000000000000001001100000000000000000000000000010100 c
b00000000000000000000000000011000 g
b00000000000000000000000000011100 h
b01000000011000101000111000110011 i
b000000000000000000000000000110000100000001100010100011100011001100000000000000000000000000011100 j
b00000000000000000000000000000000000000000000000000000000000000000000000000000000000000000001001100000000000000000000000000010000 m
07!
b10 :!
b000100010 ;!
b00000000011000101000001110110011 <!
b0110011 @!
1A!
b00000000000000000000000000011100 c!
b00000000000000000000011000111111 d!
b00000000000000000000000001111000 e!
b000000000000000000000000000101000000000000000000000001100011111100000000000000000000000001111000000000000000000000000000000000000000000001100010100000111011001100000000000000000000000000011000 j!
#14
0A!
#15
b00000000000000000000000000011000 #
b00000000000000000000000000011100 $
b00000000000000000000000000010100 %
b00000000000000000000000001111000 &
b00000000011000101000001110110011 (
b00000000000000000000000000011000 )
0.
b10 1
b00000000000000000000000000010100 3
b00000000000000000000000000010100 7
b00000000000000000000000000010000 E
b00000000000000000000000000000000000000000000000000000000000000000000000000000000000000000001001100000000000000000000000000010100 H
b000100010 L
b000000000000000000000000000101000000000000000000000001100011111100000000000000000000000001111000000000000000000000000000000000000000000001100010100000111011001100000000000000000000000000011000 M
b000000000000000000000000000110000100000001100010100011100011001100000000000000000000000000011100 S
b00000000000000000000000000000000000000000000000000000000000000000000000000000000000000000001001100000000000000000000000000010000 X
b00000000000000000000011010110111000000000000000000000000011110000000000001100010100000111011001100000000000000000000000000011000 c
b00000000000000000000000000011100 g
b00000000000000000000000000100000 h
b00000000011000101111111010110011 i
b000000000000000000000000000111000000000001100010111111101011001100000000000000000000000000100000 j
b00000000000000000000000000000000000000000000000000000000000000000000000000000000000000000001001100000000000000000000000000010100 m
b01000000011000101000111000110011 <!
b00000000000000000000011000111111 =!
b00000000000000000000000001111000 >!
1A!
b00000000000000000000000000100000 c!
b00000000000000000000011010110111 g!
b000000000000000000000000000110000000000000000000000001100011111100000000000000000000000001111000000000000000000000000000000000000100000001100010100011100011001100000000000000000000000000011100 j!
#16
0A!
#17
b00000000000000000000000000011100 #
b00000000000000000000000000100000 $
b00000000000000000000000000011000 %
b01000000011000101000111000110011 (
b00000000000000000000000000011100 )
b00000000000000000000000000011000 3
b00000000000000000000011010110111 4
b00000000000000000000000001111000 5
b00000000011000101000001110110011 6
b00000000000000000000000000011000 7
b00000000000000000000000000010100 E
b00000000000000000000011010110111000000000000000000000000011110000000000001100010100000111011001100000000000000000000000000011000 H
b000000000000000000000000000110000000000000000000000001100011111100000000000000000000000001111000000000000000000000000000000000000100000001100010100011100011001100000000000000000000000000011100 M
b000000000000000000000000000111000000000001100010111111101011001100000000000000000000000000100000 S
b00000000000000000000000000000000000000000000000000000000000000000000000000000000000000000001001100000000000000000000000000010100 X
1]
b00000000000000000000010111000111000000000000000000000000011110000100000001100010100011100011001100000000000000000000000000011100 c
b00000000000000000000000000100000 g
b00000000000000000000000000100100 h
b00000001110100101111111100010011 i
b000000000000000000000000001000000000000111010010111111110001001100000000000000000000000000100100 j
b00000000000000000000000000000000000000000000000000000110101101110000000001100010100000111011001100000000000000000000000000011000 m
b00000000011000101111111010110011 <!
b0110 ?!
1A!
b00000000000000000000000000100100 c!
b00000000000000000000010111000111 g!
b000000000000000000000000000111000000000000000000000001100011111100000000000000000000000001111000000000000000000000000000000000000000000001100010111111101011001100000000000000000000000000100000 j!
#18
0A!
#19
b00000000000000000000000000100000 #
b00000000000000000000000000100100 $
b00000000000000000000000000011100 %
b00000000011000101111111010110011 (
b00000000000000000000000000100000 )
b00000000000000000000000000011100 3
b00000000000000000000010111000111 4
b01000000011000101000111000110011 6
b00000000000000000000000000011100 7
b00000000000000000000011010110111 C
b00000000011000101000001110110011 D
b00000000000000000000000000011000 E
b00000000000000000000011010110111 F
b00000000000000000000010111000111000000000000000000000000011110000100000001100010100011100011001100000000000000000000000000011100 H
b000000000000000000000000000111000000000000000000000001100011111100000000000000000000000001111000000000000000000000000000000000000000000001100010111111101011001100000000000000000000000000100000 M
b000000000000000000000000001000000000000111010010111111110001001100000000000000000000000000100100 S
b00000000000000000000000000000000000000000000000000000110101101110000000001100010100000111011001100000000000000000000000000011000 X
0]
b111 ^
b11101 `
b00111 a
b00000000000000000000000000111000000000000000000000000000011110000000000001100010111111101011001100000000000000000000000000100000 c
b00000000000000000000000000100100 g
b00000000000000000000000000101000 h
b00000000011000101110111110110011 i
b000000000000000000000000001001000000000001100010111011111011001100000000000000000000000000101000 j
b00000000000000000000000000000000000000000000000000000101110001110100000001100010100011100011001100000000000000000000000000011100 m
17!
b11 :!
b000110110 ;!
b00000001110100101111111100010011 <!
b0000 ?!
b0010011 @!
1A!
b00000000000000000000000000101000 c!
b00000000000000000000000000000000 e!
b00000000000000000000000000011101 f!
b00000000000000000000000000111000 g!
b000000000000000000000000001000000000000000000000000001100011111100000000000000000000000000000000000000000000000000000000000111010000000111010010111111110001001100000000000000000000000000100100 j!
#20
b00000000000000000000011010110111 x
0A!
b00000000000000000000011010110111 J!
#21
b00000000000000000000000000100100 #
b00000000000000000000000000101000 $
b00000000000000000000000000100000 %
b00000000000000000000000000000000 &
b00000000000000000000000000011101 '
b00000001110100101111111100010011 (
b00000000000000000000000000100100 )
1.
b11 1
b00000000000000000000000000111010 2
b00000000000000000000000001011010 3
b00000000000000000000000000111000 4
b00000000011000101111111010110011 6
b00000000000000000000000000100000 7
b00000000000000000000010111000111 C
b01000000011000101000111000110011 D
b00000000000000000000000000011100 E
b00000000000000000000010111000111 F
b00000000000000000000000000111000000000000000000000000000011110000000000001100010111111101011001100000000000000000000000000100000 H
b000110110 L
b000000000000000000000000001000000000000000000000000001100011111100000000000000000000000000000000000000000000000000000000000111010000000111010010111111110001001100000000000000000000000000100100 M
b000000000000000000000000001001000000000001100010111011111011001100000000000000000000000000101000 S
b00000000000000000000000000000000000000000000000000000101110001110100000001100010100011100011001100000000000000000000000000011100 X
b00110 `
b11100 a
b00000000000000000000000000011101000000000000000000000000000000000000000111010010111111110001001100000000000000000000000000100100 c
b00000000000000000000000000101000 g
b00000000000000000000000000101100 h
b00110111010000101110010000010011 i
b000000000000000000000000001010000011011101000010111001000001001100000000000000000000000000101100 j
b00000000000000000000000000000000000000000000000000000000001110000000000001100010111111101011001100000000000000000000000000100000 m
07!
b10 :!
b000100010 ;!
b00000000011000101110111110110011 <!
b00000000000000000000000000011101 >!
b0110011 @!
1A!
b00000000000000000000000000101100 c!
b00000000000000000000000001111000 e!
b00000000000000000000000000000000 f!
b00000000000000000000000000011101 g!
b000000000000000000000000001001000000000000000000000001100011111100000000000000000000000001111000000000000000000000000000000000000000000001100010111011111011001100000000000000000000000000101000 j!
