lab2/testbench/waveform.vcd
$version Generated by VerilatedVcd $end
$timescale 1s $end

 $scope module TOP $end
  $var wire 32 ` a0 [31:0] $end
  $var wire 32 a a1 [31:0] $end
  $var wire  1 S clk $end
  $var wire 32 b ra [31:0] $end
  $var wire 32 \ s0 [31:0] $end
  $var wire 32 ] s1 [31:0] $end
  $var wire 32 ^ s2 [31:0] $end
  $var wire 32 _ sp [31:0] $end
  $var wire  1 T start $end
  $var wire 32 U t0 [31:0] $end
  $var wire 32 V t1 [31:0] $end
  $var wire 32 W t2 [31:0] $end
  $var wire 32 X t3 [31:0] $end
  $var wire 32 Y t4 [31:0] $end
  $var wire 32 Z t5 [31:0] $end
  $var wire 32 [ t6 [31:0] $end
  $scope module SingleCycleCPU $end
   $var wire  4 k ALUCtl [3:0] $end
   $var wire  2 K ALUOp [1:0] $end
   $var wire 32 m ALUOut [31:0] $end
   $var wire  1 P ALUSrc $end
   $var wire 32 ` a0 [31:0] $end
   $var wire 32 a a1 [31:0] $end
   $var wire 32 j alu_s2 [31:0] $end
   $var wire  1 L branch $end
   $var wire  1 S clk $end
   $var wire  1 l condition $end
   $var wire 32 h imm [31:0] $end
   $var wire 32 i imm_sl [31:0] $end
   $var wire 32 E inst [31:0] $end
   $var wire  1 R jump $end
   $var wire  1 M memRead $end
   $var wire  1 O memWrite $end
   $var wire  1 N memtoReg $end
   $var wire 32 n memtoRegWriteData [31:0] $end
   $var wire 32 D pc_a4 [31:0] $end
   $var wire 32 d pc_aimm [31:0] $end
   $var wire 32 c pc_i [31:0] $end
   $var wire 32 C pc_o [31:0] $end
   $var wire 32 b ra [31:0] $end
   $var wire 32 o readData [31:0] $end
   $var wire 32 e readData1 [31:0] $end
   $var wire 32 f readData2 [31:0] $end
   $var wire  1 Q regWrite $end
   $var wire 32 \ s0 [31:0] $end
   $var wire 32 ] s1 [31:0] $end
   $var wire 32 ^ s2 [31:0] $end
   $var wire 32 _ sp [31:0] $end
   $var wire  1 T start $end
   $var wire 32 U t0 [31:0] $end
   $var wire 32 V t1 [31:0] $end
   $var wire 32 W t2 [31:0] $end
   $var wire 32 X t3 [31:0] $end
   $var wire 32 Y t4 [31:0] $end
   $var wire 32 Z t5 [31:0] $end
   $var wire 32 [ t6 [31:0] $end
   $var wire 32 g writeData [31:0] $end
   $scope module m_ALU $end
    $var wire 32 e A [31:0] $end
    $var wire 32 m ALUOut [31:0] $end
    $var wire  4 k ALUctl [3:0] $end
    $var wire 32 j B [31:0] $end
    $var wire  1 l condition $end
   $upscope $end
   $scope module m_ALUCtrl $end
    $var wire  4 k ALUCtl [3:0] $end
    $var wire  2 K ALUOp [1:0] $end
    $var wire  3 G funct3 [2:0] $end
    $var wire  1 F funct7 $end
   $upscope $end
   $scope module m_Adder_1 $end
    $var wire 32 C a [31:0] $end
    $var wire 32 r b [31:0] $end
    $var wire 32 D sum [31:0] $end
   $upscope $end
   $scope module m_Adder_2 $end
    $var wire 32 C a [31:0] $end
    $var wire 32 i b [31:0] $end
    $var wire 32 d sum [31:0] $end
   $upscope $end
   $scope module m_Control $end
    $var wire  2 K ALUOp [1:0] $end
    $var wire  1 P ALUSrc $end
    $var wire  1 L branch $end
    $var wire  1 R jump $end
    $var wire  1 M memRead $end
    $var wire  1 O memWrite $end
    $var wire  1 N memtoReg $end
    $var wire  7 p opcode [6:0] $end
    $var wire  1 Q regWrite $end
   $upscope $end
   $scope module m_DataMemory $end
    $var wire 32 m address [31:0] $end
    $var wire  1 S clk $end
    $var wire  1 M memRead $end
    $var wire  1 O memWrite $end
    $var wire 32 o readData [31:0] $end
    $var wire  1 T rst $end
    $var wire 32 f writeData [31:0] $end
   $upscope $end
   $scope module m_ImmGen $end
    $var wire 32 h imm [31:0] $end
    $var wire 32 E inst [31:0] $end
    $var wire  7 p opcode [6:0] $end
   $upscope $end
   $scope module m_InstMem $end
    $var wire 32 E inst [31:0] $end
    $var wire 32 C readAddr [31:0] $end
   $upscope $end
   $scope module m_Mux_ALU $end
    $var wire 32 j out [31:0] $end
    $var wire 32 f s0 [31:0] $end
    $var wire 32 h s1 [31:0] $end
    $var wire  1 P sel $end
    $var wire 32 s size [31:0] $end
   $upscope $end
   $scope module m_Mux_PC $end
    $var wire 32 c out [31:0] $end
    $var wire 32 D s0 [31:0] $end
    $var wire 32 d s1 [31:0] $end
    $var wire 32 d s2 [31:0] $end
    $var wire 32 m s3 [31:0] $end
    $var wire  1 R sel1 $end
    $var wire  1 q sel2 $end
    $var wire 32 s size [31:0] $end
   $upscope $end
   $scope module m_Mux_WriteData $end
    $var wire 32 g out [31:0] $end
    $var wire 32 n s0 [31:0] $end
    $var wire 32 D s1 [31:0] $end
    $var wire  1 R sel $end
    $var wire 32 s size [31:0] $end
   $upscope $end
   $scope module m_Mux_memtoRegWriteData $end
    $var wire 32 n out [31:0] $end
    $var wire 32 m s0 [31:0] $end
    $var wire 32 o s1 [31:0] $end
    $var wire  1 N sel $end
    $var wire 32 s size [31:0] $end
   $upscope $end
   $scope module m_PC $end
    $var wire  1 S clk $end
    $var wire 32 c pc_i [31:0] $end
    $var wire 32 C pc_o [31:0] $end
    $var wire  1 T rst $end
   $upscope $end
   $scope module m_Register $end
    $var wire  1 S clk $end
    $var wire 32 e readData1 [31:0] $end
    $var wire 32 f readData2 [31:0] $end
    $var wire  5 H readReg1 [4:0] $end
    $var wire  5 I readReg2 [4:0] $end
    $var wire  1 Q regWrite $end
    $var wire 32 # regs[0] [31:0] $end
    $var wire 32 - regs[10] [31:0] $end
    $var wire 32 . regs[11] [31:0] $end
    $var wire 32 / regs[12] [31:0] $end
    $var wire 32 0 regs[13] [31:0] $end
    $var wire 32 1 regs[14] [31:0] $end
    $var wire 32 2 regs[15] [31:0] $end
    $var wire 32 3 regs[16] [31:0] $end
    $var wire 32 4 regs[17] [31:0] $end
    $var wire 32 5 regs[18] [31:0] $end
    $var wire 32 6 regs[19] [31:0] $end
    $var wire 32 $ regs[1] [31:0] $end
    $var wire 32 7 regs[20] [31:0] $end
    $var wire 32 8 regs[21] [31:0] $end
    $var wire 32 9 regs[22] [31:0] $end
    $var wire 32 : regs[23] [31:0] $end
    $var wire 32 ; regs[24] [31:0] $end
    $var wire 32 < regs[25] [31:0] $end
    $var wire 32 = regs[26] [31:0] $end
    $var wire 32 > regs[27] [31:0] $end
    $var wire 32 ? regs[28] [31:0] $end
    $var wire 32 @ regs[29] [31:0] $end
    $var wire 32 % regs[2] [31:0] $end
    $var wire 32 A regs[30] [31:0] $end
    $var wire 32 B regs[31] [31:0] $end
    $var wire 32 & regs[3] [31:0] $end
    $var wire 32 ' regs[4] [31:0] $end
    $var wire 32 ( regs[5] [31:0] $end
    $var wire 32 ) regs[6] [31:0] $end
    $var wire 32 * regs[7] [31:0] $end
    $var wire 32 + regs[8] [31:0] $end
    $var wire 32 , regs[9] [31:0] $end
    $var wire  1 T rst $end
    $var wire 32 g writeData [31:0] $end
    $var wire  5 J writeReg [4:0] $end
   $upscope $end
   $scope module m_ShiftLeftOne $end
    $var wire 32 h i [31:0] $end
    $var wire 32 i o [31:0] $end
   $upscope $end
  $upscope $end
 $upscope $end
$enddefinitions $end


#0
b00000000000000000000000000000000 #
b00000000000000000000000000000000 $
b00000000000000000000000000000000 %
b00000000000000000000000000000000 &
b00000000000000000000000000000000 '
b00000000000000000000000000000000 (
b00000000000000000000000000000000 )
b00000000000000000000000000000000 *
b00000000000000000000000000000000 +
b00000000000000000000000000000000 ,
b00000000000000000000000000000000 -
b00000000000000000000000000000000 .
b00000000000000000000000000000000 /
b00000000000000000000000000000000 0
b00000000000000000000000000000000 1
b00000000000000000000000000000000 2
b00000000000000000000000000000000 3
b00000000000000000000000000000000 4
b00000000000000000000000000000000 5
b00000000000000000000000000000000 6
b00000000000000000000000000000000 7
b00000000000000000000000000000000 8
b00000000000000000000000000000000 9
b00000000000000000000000000000000 :
b00000000000000000000000000000000 ;
b00000000000000000000000000000000 <
b00000000000000000000000000000000 =
b00000000000000000000000000000000 >
b00000000000000000000000000000000 ?
b00000000000000000000000000000000 @
b00000000000000000000000000000000 A
b00000000000000000000000000000000 B
b00000000000000000000000000000000 C
b00000000000000000000000000000100 D
b00000001011100000000010000010011 E
0F
b000 G
b00000 H
b10111 I
b01000 J
b11 K
0L
0M
0N
0O
1P
1Q
0R
0S
1T
b00000000000000000000000000000000 U
b00000000000000000000000000000000 V
b00000000000000000000000000000000 W
b00000000000000000000000000000000 X
b00000000000000000000000000000000 Y
b00000000000000000000000000000000 Z
b00000000000000000000000000000000 [
b00000000000000000000000000000000 \
b00000000000000000000000000000000 ]
b00000000000000000000000000000000 ^
b00000000000000000000000000000000 _
b00000000000000000000000000000000 `
b00000000000000000000000000000000 a
b00000000000000000000000000000000 b
b00000000000000000000000000000100 c
b00000000000000000000000000101110 d
b00000000000000000000000000000000 e
b00000000000000000000000000000000 f
b00000000000000000000000000010111 g
b00000000000000000000000000010111 h
b00000000000000000000000000101110 i
b00000000000000000000000000010111 j
b0010 k
0l
b00000000000000000000000000010111 m
b00000000000000000000000000010111 n
b00000000000000000000000000000000 o
b0010011 p
0q
b00000000000000000000000000000100 r
b00000000000000000000000000100000 s
#1
b00000000000000000000000010000000 %
1S
0T
b00000000000000000000000010000000 _
#2
b00000000000000000000000000010111 +
0S
1T
b00000000000000000000000000010111 \
#3
b00000000000000000000000000000100 C
b00000000000000000000000000001000 D
b00000101010000000000010010010011 E
b10100 I
b01001 J
1S
b00000000000000000000000000001000 c
b00000000000000000000000010101100 d
b00000000000000000000000001010100 g
b00000000000000000000000001010100 h
b00000000000000000000000010101000 i
b00000000000000000000000001010100 j
b00000000000000000000000001010100 m
b00000000000000000000000001010100 n
#4
b00000000000000000000000001010100 ,
0S
b00000000000000000000000001010100 ]
#5
b00000000000000000000000000001000 C
b00000000000000000000000000001100 D
b00000011110100000000100100010011 E
b11101 I
b10010 J
1S
b00000000000000000000000000001100 c
b00000000000000000000000010000010 d
b00000000000000000000000000111101 g
b00000000000000000000000000111101 h
b00000000000000000000000001111010 i
b00000000000000000000000000111101 j
b00000000000000000000000000111101 m
b00000000000000000000000000111101 n
#6
b00000000000000000000000000111101 5
0S
b00000000000000000000000000111101 ^
#7
b00000000000000000000000000001100 C
b00000000000000000000000000010000 D
b00000010001100000000010100010011 E
b00011 I
b01010 J
1S
b00000000000000000000000000010000 c
b00000000000000000000000001010010 d
b00000000000000000000000000100011 g
b00000000000000000000000000100011 h
b00000000000000000000000001000110 i
b00000000000000000000000000100011 j
b00000000000000000000000000100011 m
b00000000000000000000000000100011 n
#8
b00000000000000000000000000100011 -
0S
b00000000000000000000000000100011 `
#9
b00000000000000000000000000010000 C
b00000000000000000000000000010100 D
b00000100110100000000010110010011 E
b01101 I
b01011 J
1S
b00000000000000000000000000010100 c
b00000000000000000000000010101010 d
b00000000000000000000000001001101 g
b00000000000000000000000001001101 h
b00000000000000000000000010011010 i
b00000000000000000000000001001101 j
b00000000000000000000000001001101 m
b00000000000000000000000001001101 n
#10
b00000000000000000000000001001101 .
0S
b00000000000000000000000001001101 a
#11
b00000000000000000000000000010100 C
b00000000000000000000000000011000 D
b00000000100000000000000011101111 E
b01000 I
b00001 J
b00 K
0P
1R
1S
b00000000000000000000000000011100 c
b00000000000000000000000000011100 d
b00000000000000000000000000010111 f
b00000000000000000000000000011000 g
b00000000000000000000000000000100 h
b00000000000000000000000000001000 i
b00000000000000000000000000010111 j
b00000000000000000000000000010111 m
b00000000000000000000000000010111 n
b1101111 p
#12
b00000000000000000000000000011000 $
0S
b00000000000000000000000000011000 b
#13
b00000000000000000000000000011100 C
b00000000000000000000000000100000 D
b00000000101000000000001010010011 E
b01010 I
b00101 J
b11 K
1P
0R
1S
b00000000000000000000000000100000 c
b00000000000000000000000000110000 d
b00000000000000000000000000100011 f
b00000000000000000000000000001010 g
b00000000000000000000000000001010 h
b00000000000000000000000000010100 i
b00000000000000000000000000001010 j
b00000000000000000000000000001010 m
b00000000000000000000000000001010 n
b0010011 p
#14
b00000000000000000000000000001010 (
0S
b00000000000000000000000000001010 U
#15
b00000000000000000000000000100000 C
b00000000000000000000000000100100 D
b00000000101101010000010100110011 E
b01010 H
b01011 I
b01010 J
b10 K
0P
1S
b00000000000000000000000000100100 c
b00000000000000000000000000100000 d
b00000000000000000000000000100011 e
b00000000000000000000000001001101 f
b00000000000000000000000001110000 g
b00000000000000000000000000000000 h
b00000000000000000000000000000000 i
b00000000000000000000000001001101 j
b00000000000000000000000001110000 m
b00000000000000000000000001110000 n
b0110011 p
#16
b00000000000000000000000001110000 -
0S
b00000000000000000000000001110000 `
b00000000000000000000000001110000 e
b00000000000000000000000010111101 g
b00000000000000000000000010111101 m
b00000000000000000000000010111101 n
#17
b00000000000000000000000000100100 C
b00000000000000000000000000101000 D
b00000000010101010000010100110011 E
b00101 I
1S
b00000000000000000000000000101000 c
b00000000000000000000000000100100 d
b00000000000000000000000000001010 f
b00000000000000000000000001111010 g
b00000000000000000000000000001010 j
b00000000000000000000000001111010 m
b00000000000000000000000001111010 n
#18
b00000000000000000000000001111010 -
0S
b00000000000000000000000001111010 `
b00000000000000000000000001111010 e
b00000000000000000000000010000100 g
b00000000000000000000000010000100 m
b00000000000000000000000010000100 n
#19
b00000000000000000000000000101000 C
b00000000000000000000000000101100 D
b00000000000000001000000001100111 E
b00001 H
b00000 I
b00000 J
b11 K
1L
1P
1R
1S
b00000000000000000000000000011000 c
b00000000000000000000000000101000 d
b00000000000000000000000000011000 e
b00000000000000000000000000000000 f
b00000000000000000000000000101100 g
b00000000000000000000000000000000 j
b00000000000000000000000000011000 m
b00000000000000000000000000011000 n
b1100111 p
1q
#20
0S
#21
b00000000000000000000000000011000 C
b00000000000000000000000000011100 D
b00000000100101000100101001100011 E
b100 G
b01000 H
b01001 I
b10100 J
b01 K
0P
0Q
0R
1S
b00000000000000000000000000101100 c
b00000000000000000000000000101100 d
b00000000000000000000000000010111 e
b00000000000000000000000001010100 f
b00000000000000000000000000000001 g
b00000000000000000000000000001010 h
b00000000000000000000000000010100 i
b00000000000000000000000001010100 j
b0111 k
1l
b00000000000000000000000000000001 m
b00000000000000000000000000000001 n
b1100011 p
#22
0S
#23
b00000000000000000000000000101100 C
b00000000000000000000000000110000 D
b00000000100101000100010001100011 E
b01000 J
1S
b00000000000000000000000000110100 c
b00000000000000000000000000110100 d
b00000000000000000000000000000100 h
b00000000000000000000000000001000 i
#24
0S
#25
b00000000000000000000000000110100 C
b00000000000000000000000000111000 D
b01000000100001001000001100110011 E
1F
b000 G
b01001 H
b01000 I
b00110 J
b10 K
0L
1Q
1S
b00000000000000000000000000111000 c
b00000000000000000000000001010100 e
b00000000000000000000000000010111 f
b00000000000000000000000000111101 g
b00000000000000000000000000000000 h
b00000000000000000000000000000000 i
b00000000000000000000000000010111 j
b0110 k
0l
b00000000000000000000000000111101 m
b00000000000000000000000000111101 n
b0110011 p
0q
#26
b00000000000000000000000000111101 )
0S
b00000000000000000000000000111101 V
#27
b00000000000000000000000000111000 C
b00000000000000000000000000111100 D
b00000001001000110001100001100011 E
0F
b001 G
b00110 H
b10010 I
b10000 J
b01 K
1L
0Q
1S
b00000000000000000000000000111100 c
b00000000000000000000000001001000 d
b00000000000000000000000000111101 e
b00000000000000000000000000111101 f
b00000000000000000000000000000000 g
b00000000000000000000000000001000 h
b00000000000000000000000000010000 i
b00000000000000000000000000111101 j
b1001 k
b00000000000000000000000000000000 m
b00000000000000000000000000000000 n
b1100011 p
#28
0S
#29
b00000000000000000000000000111100 C
b00000000000000000000000001000000 D
b00001010100000000000111000010011 E
b000 G
b00000 H
b01000 I
b11100 J
b11 K
0L
1P
1Q
1S
b00000000000000000000000001000000 c
b00000000000000000000000110001100 d
b00000000000000000000000000000000 e
b00000000000000000000000000010111 f
b00000000000000000000000010101000 g
b00000000000000000000000010101000 h
b00000000000000000000000101010000 i
b00000000000000000000000010101000 j
b0010 k
b00000000000000000000000010101000 m
b00000000000000000000000010101000 n
b0010011 p
#30
b00000000000000000000000010101000 ?
0S
b00000000000000000000000010101000 X
#31
b00000000000000000000000001000000 C
b00000000000000000000000001000100 D
b00000001001011100001010001100011 E
b001 G
b11100 H
b10010 I
b01000 J
b01 K
1L
0P
0Q
1S
b00000000000000000000000001001000 c
b00000000000000000000000001001000 d
b00000000000000000000000010101000 e
b00000000000000000000000000111101 f
b00000000000000000000000000000001 g
b00000000000000000000000000000100 h
b00000000000000000000000000001000 i
b00000000000000000000000000111101 j
b1001 k
1l
b00000000000000000000000000000001 m
b00000000000000000000000000000001 n
b1100011 p
1q
#32
0S
#33
b00000000000000000000000001001000 C
b00000000000000000000000001001100 D
b01101001100000000000111010010011 E
1F
b000 G
b00000 H
b11000 I
b11101 J
b11 K
0L
1P
1Q
1S
b00000000000000000000000001001100 c
b00000000000000000000110101111000 d
b00000000000000000000000000000000 e
b00000000000000000000000000000000 f
b00000000000000000000011010011000 g
b00000000000000000000011010011000 h
b00000000000000000000110100110000 i
b00000000000000000000011010011000 j
b0010 k
0l
b00000000000000000000011010011000 m
b00000000000000000000011010011000 n
b0010011 p
0q
#34
b00000000000000000000011010011000 @
0S
b00000000000000000000011010011000 Y
#35
b00000000000000000000000001001100 C
b00000000000000000000000001010000 D
b00000000000000000000000000000000 E
0F
b00000 I
b00000 J
b00 K
0P
0Q
1S
b00000000000000000000000001010000 c
b00000000000000000000000001001100 d
b00000000000000000000000000000000 g
b00000000000000000000000000000000 h
b00000000000000000000000000000000 i
b00000000000000000000000000000000 j
b00000000000000000000000000000000 m
b00000000000000000000000000000000 n
b0000000 p
#36
0S
#37
b00000000000000000000000001010000 C
b00000000000000000000000001010100 D
1S
b00000000000000000000000001010100 c
b00000000000000000000000001010000 d
#38
0S
#39
b00000000000000000000000001010100 C
b00000000000000000000000001011000 D
1S
b00000000000000000000000001011000 c
b00000000000000000000000001010100 d
#40
0S
#41
b00000000000000000000000001011000 C
b00000000000000000000000001011100 D
1S
b00000000000000000000000001011100 c
b00000000000000000000000001011000 d
#42
0S
#43
b00000000000000000000000001011100 C
b00000000000000000000000001100000 D
1S
b00000000000000000000000001100000 c
b00000000000000000000000001011100 d
#44
0S
#45
b00000000000000000000000001100000 C
b00000000000000000000000001100100 D
1S
b00000000000000000000000001100100 c
b00000000000000000000000001100000 d
#46
0S
#47
b00000000000000000000000001100100 C
b00000000000000000000000001101000 D
1S
b00000000000000000000000001101000 c
b00000000000000000000000001100100 d
#48
0S
#49
b00000000000000000000000001101000 C
b00000000000000000000000001101100 D
1S
b00000000000000000000000001101100 c
b00000000000000000000000001101000 d
#50
0S
#51
b00000000000000000000000001101100 C
b00000000000000000000000001110000 D
1S
b00000000000000000000000001110000 c
b00000000000000000000000001101100 d
#52
0S
#53
b00000000000000000000000001110000 C
b00000000000000000000000001110100 D
1S
b00000000000000000000000001110100 c
b00000000000000000000000001110000 d
