lab1/testbench/waveform.vcd
$version Generated by VerilatedVcd $end
$timescale 1s $end

 $scope module TOP $end
  $var wire  1 P clk $end
  $var wire 32 Y s0 [31:0] $end
  $var wire 32 Z s1 [31:0] $end
  $var wire 32 [ s2 [31:0] $end
  $var wire 32 \ sp [31:0] $end
  $var wire  1 Q start $end
  $var wire 32 R t0 [31:0] $end
  $var wire 32 S t1 [31:0] $end
  $var wire 32 T t2 [31:0] $end
  $var wire 32 U t3 [31:0] $end
  $var wire 32 V t4 [31:0] $end
  $var wire 32 W t5 [31:0] $end
  $var wire 32 X t6 [31:0] $end
  $scope module SingleCycleCPU $end
   $var wire  4 f ALUCtl [3:0] $end
   $var wire  2 I ALUOp [1:0] $end
   $var wire 32 h ALUOut [31:0] $end
   $var wire  1 N ALUSrc $end
   $var wire 32 e alu_s2 [31:0] $end
   $var wire  1 J branch $end
   $var wire  1 P clk $end
   $var wire 32 c imm [31:0] $end
   $var wire 32 d imm_sl [31:0] $end
   $var wire 32 _ inst [31:0] $end
   $var wire  1 K memRead $end
   $var wire  1 M memWrite $end
   $var wire  1 L memtoReg $end
   $var wire 32 $ pc_a4 [31:0] $end
   $var wire 32 ^ pc_aimm [31:0] $end
   $var wire 32 ] pc_i [31:0] $end
   $var wire 32 # pc_o [31:0] $end
   $var wire 32 i readData [31:0] $end
   $var wire 32 ` readData1 [31:0] $end
   $var wire 32 a readData2 [31:0] $end
   $var wire  1 O regWrite $end
   $var wire 32 Y s0 [31:0] $end
   $var wire 32 Z s1 [31:0] $end
   $var wire 32 [ s2 [31:0] $end
   $var wire 32 \ sp [31:0] $end
   $var wire  1 Q start $end
   $var wire 32 R t0 [31:0] $end
   $var wire 32 S t1 [31:0] $end
   $var wire 32 T t2 [31:0] $end
   $var wire 32 U t3 [31:0] $end
   $var wire 32 V t4 [31:0] $end
   $var wire 32 W t5 [31:0] $end
   $var wire 32 X t6 [31:0] $end
   $var wire 32 b writeData [31:0] $end
   $var wire  1 g zero $end
   $scope module m_ALU $end
    $var wire 32 ` A [31:0] $end
    $var wire 32 h ALUOut [31:0] $end
    $var wire  4 f ALUctl [3:0] $end
    $var wire 32 e B [31:0] $end
    $var wire  1 g zero $end
   $upscope $end
   $scope module m_ALUCtrl $end
    $var wire  4 f ALUCtl [3:0] $end
    $var wire  2 I ALUOp [1:0] $end
    $var wire  3 & funct3 [2:0] $end
    $var wire  1 % funct7 $end
   $upscope $end
   $scope module m_Adder_1 $end
    $var wire 32 # a [31:0] $end
    $var wire 32 m b [31:0] $end
    $var wire 32 $ sum [31:0] $end
   $upscope $end
   $scope module m_Adder_2 $end
    $var wire 32 # a [31:0] $end
    $var wire 32 d b [31:0] $end
    $var wire 32 ^ sum [31:0] $end
   $upscope $end
   $scope module m_Control $end
    $var wire  2 I ALUOp [1:0] $end
    $var wire  1 N ALUSrc $end
    $var wire  1 J branch $end
    $var wire  1 K memRead $end
    $var wire  1 M memWrite $end
    $var wire  1 L memtoReg $end
    $var wire  7 j opcode [6:0] $end
    $var wire  1 O regWrite $end
   $upscope $end
   $scope module m_DataMemory $end
    $var wire 32 h address [31:0] $end
    $var wire  1 P clk $end
    $var wire  1 K memRead $end
    $var wire  1 M memWrite $end
    $var wire 32 i readData [31:0] $end
    $var wire  1 Q rst $end
    $var wire 32 a writeData [31:0] $end
   $upscope $end
   $scope module m_ImmGen $end
    $var wire 32 c imm [31:0] $end
    $var wire 32 _ inst [31:0] $end
    $var wire  7 j opcode [6:0] $end
   $upscope $end
   $scope module m_InstMem $end
    $var wire 32 _ inst [31:0] $end
    $var wire 32 # readAddr [31:0] $end
   $upscope $end
   $scope module m_Mux_ALU $end
    $var wire 32 e out [31:0] $end
    $var wire 32 a s0 [31:0] $end
    $var wire 32 c s1 [31:0] $end
    $var wire  1 N sel $end
    $var wire 32 n size [31:0] $end
   $upscope $end
   $scope module m_Mux_PC $end
    $var wire 32 ] out [31:0] $end
    $var wire 32 $ s0 [31:0] $end
    $var wire 32 ^ s1 [31:0] $end
    $var wire  1 k sel $end
    $var wire 32 n size [31:0] $end
   $upscope $end
   $scope module m_Mux_WriteData $end
    $var wire 32 b out [31:0] $end
    $var wire 32 h s0 [31:0] $end
    $var wire 32 i s1 [31:0] $end
    $var wire  1 L sel $end
    $var wire 32 n size [31:0] $end
   $upscope $end
   $scope module m_PC $end
    $var wire  1 P clk $end
    $var wire 32 ] pc_i [31:0] $end
    $var wire 32 # pc_o [31:0] $end
    $var wire  1 Q rst $end
   $upscope $end
   $scope module m_Register $end
    $var wire  1 P clk $end
    $var wire 32 ` readData1 [31:0] $end
    $var wire 32 a readData2 [31:0] $end
    $var wire  5 ' readReg1 [4:0] $end
    $var wire  5 ( readReg2 [4:0] $end
    $var wire  1 O regWrite $end
    $var wire 32 ) regs[0] [31:0] $end
    $var wire 32 3 regs[10] [31:0] $end
    $var wire 32 4 regs[11] [31:0] $end
    $var wire 32 5 regs[12] [31:0] $end
    $var wire 32 6 regs[13] [31:0] $end
    $var wire 32 7 regs[14] [31:0] $end
    $var wire 32 8 regs[15] [31:0] $end
    $var wire 32 9 regs[16] [31:0] $end
    $var wire 32 : regs[17] [31:0] $end
    $var wire 32 ; regs[18] [31:0] $end
    $var wire 32 < regs[19] [31:0] $end
    $var wire 32 * regs[1] [31:0] $end
    $var wire 32 = regs[20] [31:0] $end
    $var wire 32 > regs[21] [31:0] $end
    $var wire 32 ? regs[22] [31:0] $end
    $var wire 32 @ regs[23] [31:0] $end
    $var wire 32 A regs[24] [31:0] $end
    $var wire 32 B regs[25] [31:0] $end
    $var wire 32 C regs[26] [31:0] $end
    $var wire 32 D regs[27] [31:0] $end
    $var wire 32 E regs[28] [31:0] $end
    $var wire 32 F regs[29] [31:0] $end
    $var wire 32 + regs[2] [31:0] $end
    $var wire 32 G regs[30] [31:0] $end
    $var wire 32 H regs[31] [31:0] $end
    $var wire 32 , regs[3] [31:0] $end
    $var wire 32 - regs[4] [31:0] $end
    $var wire 32 . regs[5] [31:0] $end
    $var wire 32 / regs[6] [31:0] $end
    $var wire 32 0 regs[7] [31:0] $end
    $var wire 32 1 regs[8] [31:0] $end
    $var wire 32 2 regs[9] [31:0] $end
    $var wire  1 Q rst $end
    $var wire 32 b writeData [31:0] $end
    $var wire  5 l writeReg [4:0] $end
   $upscope $end
   $scope module m_ShiftLeftOne $end
    $var wire 32 c i [31:0] $end
    $var wire 32 d o [31:0] $end
   $upscope $end
  $upscope $end
 $upscope $end
$enddefinitions $end


#0
b00000000000000000000000000000000 #
b00000000000000000000000000000100 $
0%
b000 &
b00000 '
b00011 (
b00000000000000000000000000000000 )
b00000000000000000000000000000000 *
b00000000000000000000000000000000 +
b00000000000000000000000000000000 ,
b00000000000000000000000000000000 -
b00000000000000000000000000000000 .
b00000000000000000000000000000000 /
b00000000000000000000000000000000 0
b00000000000000000000000000000000 1
b00000000000000000000000000000000 2
b00000000000000000000000000000000 3
b00000000000000000000000000000000 4
b00000000000000000000000000000000 5
b00000000000000000000000000000000 6
b00000000000000000000000000000000 7
b00000000000000000000000000000000 8
b00000000000000000000000000000000 9
b00000000000000000000000000000000 :
b00000000000000000000000000000000 ;
b00000000000000000000000000000000 <
b00000000000000000000000000000000 =
b00000000000000000000000000000000 >
b00000000000000000000000000000000 ?
b00000000000000000000000000000000 @
b00000000000000000000000000000000 A
b00000000000000000000000000000000 B
b00000000000000000000000000000000 C
b00000000000000000000000000000000 D
b00000000000000000000000000000000 E
b00000000000000000000000000000000 F
b00000000000000000000000000000000 G
b00000000000000000000000000000000 H
b11 I
0J
0K
0L
0M
1N
1O
0P
1Q
b00000000000000000000000000000000 R
b00000000000000000000000000000000 S
b00000000000000000000000000000000 T
b00000000000000000000000000000000 U
b00000000000000000000000000000000 V
b00000000000000000000000000000000 W
b00000000000000000000000000000000 X
b00000000000000000000000000000000 Y
b00000000000000000000000000000000 Z
b00000000000000000000000000000000 [
b00000000000000000000000000000000 \
b00000000000000000000000000000100 ]
b00000000000000000000000101000110 ^
b00001010001100000000010000010011 _
b00000000000000000000000000000000 `
b00000000000000000000000000000000 a
b00000000000000000000000010100011 b
b00000000000000000000000010100011 c
b00000000000000000000000101000110 d
b00000000000000000000000010100011 e
b0010 f
0g
b00000000000000000000000010100011 h
b00000000000000000000000000000000 i
b0010011 j
0k
b01000 l
b00000000000000000000000000000100 m
b00000000000000000000000000100000 n
#1
b00000000000000000000000010000000 +
1P
0Q
b00000000000000000000000010000000 \
#2
b00000000000000000000000010100011 1
0P
1Q
b00000000000000000000000010100011 Y
#3
b00000000000000000000000000000100 #
b00000000000000000000000000001000 $
1%
b00010 '
b11100 (
1P
b00000000000000000000000000001000 ]
b11111111111111111111111111111100 ^
b11111111110000010000000100010011 _
b00000000000000000000000010000000 `
b00000000000000000000000001111100 b
b11111111111111111111111111111100 c
b11111111111111111111111111111000 d
b11111111111111111111111111111100 e
b00000000000000000000000001111100 h
b00010 l
#4
b00000000000000000000000001111100 +
0P
b00000000000000000000000001111100 \
b00000000000000000000000001111100 `
b00000000000000000000000001111000 b
b00000000000000000000000001111000 h
#5
b00000000000000000000000000001000 #
b00000000000000000000000000001100 $
0%
b010 &
b01000 (
b00 I
1M
0O
1P
b00000000000000000000000000001100 ]
b00000000000000000000000000001000 ^
b00000000100000010010000000100011 _
b00000000000000000000000010100011 a
b00000000000000000000000001111100 b
b00000000000000000000000000000000 c
b00000000000000000000000000000000 d
b00000000000000000000000000000000 e
b00000000000000000000000001111100 h
b0100011 j
b00000 l
#6
0P
#7
b00000000000000000000000000001100 #
b00000000000000000000000000010000 $
b000 &
b00000 '
b00000 (
b10 I
0M
0N
1O
1P
b00000000000000000000000000010000 ]
b00000000000000000000000000001100 ^
b00000000000000000000010000110011 _
b00000000000000000000000000000000 `
b00000000000000000000000000000000 a
b00000000000000000000000000000000 b
1g
b00000000000000000000000000000000 h
b0110011 j
b01000 l
#8
b00000000000000000000000000000000 1
0P
b00000000000000000000000000000000 Y
#9
b00000000000000000000000000010000 #
b00000000000000000000000000010100 $
b11 I
1N
1P
b00000000000000000000000000010100 ]
b00000000000000000000000000010000 ^
b00000000000000000000001010010011 _
b0010011 j
b00101 l
#10
0P
#11
b00000000000000000000000000010100 #
b00000000000000000000000000011000 $
b010 &
b00101 '
b00111 (
1P
b00000000000000000000000000011000 ]
b00000000000000000000000000100010 ^
b00000000011100101010001100010011 _
b00000000000000000000000000000001 b
b00000000000000000000000000000111 c
b00000000000000000000000000001110 d
b00000000000000000000000000000111 e
b0111 f
0g
b00000000000000000000000000000001 h
b00110 l
#12
b00000000000000000000000000000001 /
0P
b00000000000000000000000000000001 S
#13
b00000000000000000000000000011000 #
b00000000000000000000000000011100 $
b000 &
b00110 '
b00000 (
b01 I
1J
0N
0O
1P
b00000000000000000000000000011100 ]
b00000000000000000000000000100100 ^
b00000000000000110000011001100011 _
b00000000000000000000000000000001 `
b00000000000000000000000000000110 c
b00000000000000000000000000001100 d
b00000000000000000000000000000000 e
b0110 f
b1100011 j
b01100 l
#14
0P
#15
b00000000000000000000000000011100 #
b00000000000000000000000000100000 $
b00101 '
b00001 (
b11 I
0J
1N
1O
1P
b00000000000000000000000000100000 ]
b00000000000000000000000000011110 ^
b00000000000100101000001010010011 _
b00000000000000000000000000000000 `
b00000000000000000000000000000001 c
b00000000000000000000000000000010 d
b00000000000000000000000000000001 e
b0010 f
b0010011 j
b00101 l
#16
b00000000000000000000000000000001 .
0P
b00000000000000000000000000000001 R
b00000000000000000000000000000001 `
b00000000000000000000000000000010 b
b00000000000000000000000000000010 h
#17
b00000000000000000000000000100000 #
b00000000000000000000000000100100 $
1%
b00000 '
b00000 (
b01 I
1J
0N
0O
1P
b00000000000000000000000000010100 ]
b00000000000000000000000000010100 ^
b11111110000000000000101011100011 _
b00000000000000000000000000000000 `
b00000000000000000000000000000000 b
b11111111111111111111111111111010 c
b11111111111111111111111111110100 d
b00000000000000000000000000000000 e
b0110 f
1g
b00000000000000000000000000000000 h
b1100011 j
1k
b10101 l
#18
0P
#19
b00000000000000000000000000010100 #
b00000000000000000000000000011000 $
0%
b010 &
b00101 '
b00111 (
b11 I
0J
1N
1O
1P
b00000000000000000000000000011000 ]
b00000000000000000000000000100010 ^
b00000000011100101010001100010011 _
b00000000000000000000000000000001 `
b00000000000000000000000000000001 b
b00000000000000000000000000000111 c
b00000000000000000000000000001110 d
b00000000000000000000000000000111 e
b0111 f
0g
b00000000000000000000000000000001 h
b0010011 j
0k
b00110 l
#20
0P
#21
b00000000000000000000000000011000 #
b00000000000000000000000000011100 $
b000 &
b00110 '
b00000 (
b01 I
1J
0N
0O
1P
b00000000000000000000000000011100 ]
b00000000000000000000000000100100 ^
b00000000000000110000011001100011 _
b00000000000000000000000000000110 c
b00000000000000000000000000001100 d
b00000000000000000000000000000000 e
b0110 f
b1100011 j
b01100 l
#22
0P
#23
b00000000000000000000000000011100 #
b00000000000000000000000000100000 $
b00101 '
b00001 (
b11 I
0J
1N
1O
1P
b00000000000000000000000000100000 ]
b00000000000000000000000000011110 ^
b00000000000100101000001010010011 _
b00000000000000000000000000000010 b
b00000000000000000000000000000001 c
b00000000000000000000000000000010 d
b00000000000000000000000000000001 e
b0010 f
b00000000000000000000000000000010 h
b0010011 j
b00101 l
#24
b00000000000000000000000000000010 .
0P
b00000000000000000000000000000010 R
b00000000000000000000000000000010 `
b00000000000000000000000000000011 b
b00000000000000000000000000000011 h
#25
b00000000000000000000000000100000 #
b00000000000000000000000000100100 $
1%
b00000 '
b00000 (
b01 I
1J
0N
0O
1P
b00000000000000000000000000010100 ]
b00000000000000000000000000010100 ^
b11111110000000000000101011100011 _
b00000000000000000000000000000000 `
b00000000000000000000000000000000 b
b11111111111111111111111111111010 c
b11111111111111111111111111110100 d
b00000000000000000000000000000000 e
b0110 f
1g
b00000000000000000000000000000000 h
b1100011 j
1k
b10101 l
#26
0P
#27
b00000000000000000000000000010100 #
b00000000000000000000000000011000 $
0%
b010 &
b00101 '
b00111 (
b11 I
0J
1N
1O
1P
b00000000000000000000000000011000 ]
b00000000000000000000000000100010 ^
b00000000011100101010001100010011 _
b00000000000000000000000000000010 `
b00000000000000000000000000000001 b
b00000000000000000000000000000111 c
b00000000000000000000000000001110 d
b00000000000000000000000000000111 e
b0111 f
0g
b00000000000000000000000000000001 h
b0010011 j
0k
b00110 l
#28
0P
#29
b00000000000000000000000000011000 #
b00000000000000000000000000011100 $
b000 &
b00110 '
b00000 (
b01 I
1J
0N
0O
1P
b00000000000000000000000000011100 ]
b00000000000000000000000000100100 ^
b00000000000000110000011001100011 _
b00000000000000000000000000000001 `
b00000000000000000000000000000110 c
b00000000000000000000000000001100 d
b00000000000000000000000000000000 e
b0110 f
b1100011 j
b01100 l
#30
0P
#31
b00000000000000000000000000011100 #
b00000000000000000000000000100000 $
b00101 '
b00001 (
b11 I
0J
1N
1O
1P
b00000000000000000000000000100000 ]
b00000000000000000000000000011110 ^
b00000000000100101000001010010011 _
b00000000000000000000000000000010 `
b00000000000000000000000000000011 b
b00000000000000000000000000000001 c
b00000000000000000000000000000010 d
b00000000000000000000000000000001 e
b0010 f
b00000000000000000000000000000011 h
b0010011 j
b00101 l
#32
b00000000000000000000000000000011 .
0P
b00000000000000000000000000000011 R
b00000000000000000000000000000011 `
b00000000000000000000000000000100 b
b00000000000000000000000000000100 h
#33
b00000000000000000000000000100000 #
b00000000000000000000000000100100 $
1%
b00000 '
b00000 (
b01 I
1J
0N
0O
1P
b00000000000000000000000000010100 ]
b00000000000000000000000000010100 ^
b11111110000000000000101011100011 _
b00000000000000000000000000000000 `
b00000000000000000000000000000000 b
b11111111111111111111111111111010 c
b11111111111111111111111111110100 d
b00000000000000000000000000000000 e
b0110 f
1g
b00000000000000000000000000000000 h
b1100011 j
1k
b10101 l
#34
0P
#35
b00000000000000000000000000010100 #
b00000000000000000000000000011000 $
0%
b010 &
b00101 '
b00111 (
b11 I
0J
1N
1O
1P
b00000000000000000000000000011000 ]
b00000000000000000000000000100010 ^
b00000000011100101010001100010011 _
b00000000000000000000000000000011 `
b00000000000000000000000000000001 b
b00000000000000000000000000000111 c
b00000000000000000000000000001110 d
b00000000000000000000000000000111 e
b0111 f
0g
b00000000000000000000000000000001 h
b0010011 j
0k
b00110 l
#36
0P
#37
b00000000000000000000000000011000 #
b00000000000000000000000000011100 $
b000 &
b00110 '
b00000 (
b01 I
1J
0N
0O
1P
b00000000000000000000000000011100 ]
b00000000000000000000000000100100 ^
b00000000000000110000011001100011 _
b00000000000000000000000000000001 `
b00000000000000000000000000000110 c
b00000000000000000000000000001100 d
b00000000000000000000000000000000 e
b0110 f
b1100011 j
b01100 l
#38
0P
#39
b00000000000000000000000000011100 #
b00000000000000000000000000100000 $
b00101 '
b00001 (
b11 I
0J
1N
1O
1P
b00000000000000000000000000100000 ]
b00000000000000000000000000011110 ^
b00000000000100101000001010010011 _
b00000000000000000000000000000011 `
b00000000000000000000000000000100 b
b00000000000000000000000000000001 c
b00000000000000000000000000000010 d
b00000000000000000000000000000001 e
b0010 f
b00000000000000000000000000000100 h
b0010011 j
b00101 l
#40
b00000000000000000000000000000100 .
0P
b00000000000000000000000000000100 R
b00000000000000000000000000000100 `
b00000000000000000000000000000101 b
b00000000000000000000000000000101 h
#41
b00000000000000000000000000100000 #
b00000000000000000000000000100100 $
1%
b00000 '
b00000 (
b01 I
1J
0N
0O
1P
b00000000000000000000000000010100 ]
b00000000000000000000000000010100 ^
b11111110000000000000101011100011 _
b00000000000000000000000000000000 `
b00000000000000000000000000000000 b
b11111111111111111111111111111010 c
b11111111111111111111111111110100 d
b00000000000000000000000000000000 e
b0110 f
1g
b00000000000000000000000000000000 h
b1100011 j
1k
b10101 l
#42
0P
#43
b00000000000000000000000000010100 #
b00000000000000000000000000011000 $
0%
b010 &
b00101 '
b00111 (
b11 I
0J
1N
1O
1P
b00000000000000000000000000011000 ]
b00000000000000000000000000100010 ^
b00000000011100101010001100010011 _
b00000000000000000000000000000100 `
b00000000000000000000000000000001 b
b00000000000000000000000000000111 c
b00000000000000000000000000001110 d
b00000000000000000000000000000111 e
b0111 f
0g
b00000000000000000000000000000001 h
b0010011 j
0k
b00110 l
#44
0P
#45
b00000000000000000000000000011000 #
b00000000000000000000000000011100 $
b000 &
b00110 '
b00000 (
b01 I
1J
0N
0O
1P
b00000000000000000000000000011100 ]
b00000000000000000000000000100100 ^
b00000000000000110000011001100011 _
b00000000000000000000000000000001 `
b00000000000000000000000000000110 c
b00000000000000000000000000001100 d
b00000000000000000000000000000000 e
b0110 f
b1100011 j
b01100 l
#46
0P
#47
b00000000000000000000000000011100 #
b00000000000000000000000000100000 $
b00101 '
b00001 (
b11 I
0J
1N
1O
1P
b00000000000000000000000000100000 ]
b00000000000000000000000000011110 ^
b00000000000100101000001010010011 _
b00000000000000000000000000000100 `
b00000000000000000000000000000101 b
b00000000000000000000000000000001 c
b00000000000000000000000000000010 d
b00000000000000000000000000000001 e
b0010 f
b00000000000000000000000000000101 h
b0010011 j
b00101 l
#48
b00000000000000000000000000000101 .
0P
b00000000000000000000000000000101 R
b00000000000000000000000000000101 `
b00000000000000000000000000000110 b
b00000000000000000000000000000110 h
#49
b00000000000000000000000000100000 #
b00000000000000000000000000100100 $
1%
b00000 '
b00000 (
b01 I
1J
0N
0O
1P
b00000000000000000000000000010100 ]
b00000000000000000000000000010100 ^
b11111110000000000000101011100011 _
b00000000000000000000000000000000 `
b00000000000000000000000000000000 b
b11111111111111111111111111111010 c
b11111111111111111111111111110100 d
b00000000000000000000000000000000 e
b0110 f
1g
b00000000000000000000000000000000 h
b1100011 j
1k
b10101 l
#50
0P
#51
b00000000000000000000000000010100 #
b00000000000000000000000000011000 $
0%
b010 &
b00101 '
b00111 (
b11 I
0J
1N
1O
1P
b00000000000000000000000000011000 ]
b00000000000000000000000000100010 ^
b00000000011100101010001100010011 _
b00000000000000000000000000000101 `
b00000000000000000000000000000001 b
b00000000000000000000000000000111 c
b00000000000000000000000000001110 d
b00000000000000000000000000000111 e
b0111 f
0g
b00000000000000000000000000000001 h
b0010011 j
0k
b00110 l
#52
0P
#53
b00000000000000000000000000011000 #
b00000000000000000000000000011100 $
b000 &
b00110 '
b00000 (
b01 I
1J
0N
0O
1P
b00000000000000000000000000011100 ]
b00000000000000000000000000100100 ^
b00000000000000110000011001100011 _
b00000000000000000000000000000001 `
b00000000000000000000000000000110 c
b00000000000000000000000000001100 d
b00000000000000000000000000000000 e
b0110 f
b1100011 j
b01100 l
#54
0P
#55
b00000000000000000000000000011100 #
b00000000000000000000000000100000 $
b00101 '
b00001 (
b11 I
0J
1N
1O
1P
b00000000000000000000000000100000 ]
b00000000000000000000000000011110 ^
b00000000000100101000001010010011 _
b00000000000000000000000000000101 `
b00000000000000000000000000000110 b
b00000000000000000000000000000001 c
b00000000000000000000000000000010 d
b00000000000000000000000000000001 e
b0010 f
b00000000000000000000000000000110 h
b0010011 j
b00101 l
#56
b00000000000000000000000000000110 .
0P
b00000000000000000000000000000110 R
b00000000000000000000000000000110 `
b00000000000000000000000000000111 b
b00000000000000000000000000000111 h
#57
b00000000000000000000000000100000 #
b00000000000000000000000000100100 $
1%
b00000 '
b00000 (
b01 I
1J
0N
0O
1P
b00000000000000000000000000010100 ]
b00000000000000000000000000010100 ^
b11111110000000000000101011100011 _
b00000000000000000000000000000000 `
b00000000000000000000000000000000 b
b11111111111111111111111111111010 c
b11111111111111111111111111110100 d
b00000000000000000000000000000000 e
b0110 f
1g
b00000000000000000000000000000000 h
b1100011 j
1k
b10101 l
#58
0P
#59
b00000000000000000000000000010100 #
b00000000000000000000000000011000 $
0%
b010 &
b00101 '
b00111 (
b11 I
0J
1N
1O
1P
b00000000000000000000000000011000 ]
b00000000000000000000000000100010 ^
b00000000011100101010001100010011 _
b00000000000000000000000000000110 `
b00000000000000000000000000000001 b
b00000000000000000000000000000111 c
b00000000000000000000000000001110 d
b00000000000000000000000000000111 e
b0111 f
0g
b00000000000000000000000000000001 h
b0010011 j
0k
b00110 l
#60
0P
#61
b00000000000000000000000000011000 #
b00000000000000000000000000011100 $
b000 &
b00110 '
b00000 (
b01 I
1J
0N
0O
1P
b00000000000000000000000000011100 ]
b00000000000000000000000000100100 ^
b00000000000000110000011001100011 _
b00000000000000000000000000000001 `
b00000000000000000000000000000110 c
b00000000000000000000000000001100 d
b00000000000000000000000000000000 e
b0110 f
b1100011 j
b01100 l
#62
0P
#63
b00000000000000000000000000011100 #
b00000000000000000000000000100000 $
b00101 '
b00001 (
b11 I
0J
1N
1O
1P
b00000000000000000000000000100000 ]
b00000000000000000000000000011110 ^
b00000000000100101000001010010011 _
b00000000000000000000000000000110 `
b00000000000000000000000000000111 b
b00000000000000000000000000000001 c
b00000000000000000000000000000010 d
b00000000000000000000000000000001 e
b0010 f
b00000000000000000000000000000111 h
b0010011 j
b00101 l
#64
b00000000000000000000000000000111 .
0P
b00000000000000000000000000000111 R
b00000000000000000000000000000111 `
b00000000000000000000000000001000 b
b00000000000000000000000000001000 h
#65
b00000000000000000000000000100000 #
b00000000000000000000000000100100 $
1%
b00000 '
b00000 (
b01 I
1J
0N
0O
1P
b00000000000000000000000000010100 ]
b00000000000000000000000000010100 ^
b11111110000000000000101011100011 _
b00000000000000000000000000000000 `
b00000000000000000000000000000000 b
b11111111111111111111111111111010 c
b11111111111111111111111111110100 d
b00000000000000000000000000000000 e
b0110 f
1g
b00000000000000000000000000000000 h
b1100011 j
1k
b10101 l
#66
0P
#67
b00000000000000000000000000010100 #
b00000000000000000000000000011000 $
0%
b010 &
b00101 '
b00111 (
b11 I
0J
1N
1O
1P
b00000000000000000000000000011000 ]
b00000000000000000000000000100010 ^
b00000000011100101010001100010011 _
b00000000000000000000000000000111 `
b00000000000000000000000000000111 c
b00000000000000000000000000001110 d
b00000000000000000000000000000111 e
b0111 f
b0010011 j
0k
b00110 l
#68
b00000000000000000000000000000000 /
0P
b00000000000000000000000000000000 S
#69
b00000000000000000000000000011000 #
b00000000000000000000000000011100 $
b000 &
b00110 '
b00000 (
b01 I
1J
0N
0O
1P
b00000000000000000000000000100100 ]
b00000000000000000000000000100100 ^
b00000000000000110000011001100011 _
b00000000000000000000000000000000 `
b00000000000000000000000000000110 c
b00000000000000000000000000001100 d
b00000000000000000000000000000000 e
b0110 f
b1100011 j
1k
b01100 l
#70
0P
#71
b00000000000000000000000000100100 #
b00000000000000000000000000101000 $
b110 &
b01010 (
b11 I
0J
1N
1O
1P
b00000000000000000000000000101000 ]
b00000000000000000000000000111000 ^
b00000000101000110110001100010011 _
b00000000000000000000000000001010 b
b00000000000000000000000000001010 c
b00000000000000000000000000010100 d
b00000000000000000000000000001010 e
b0001 f
0g
b00000000000000000000000000001010 h
b0010011 j
0k
b00110 l
#72
b00000000000000000000000000001010 /
0P
b00000000000000000000000000001010 S
b00000000000000000000000000001010 `
#73
b00000000000000000000000000101000 #
b00000000000000000000000000101100 $
b010 &
b00010 '
b00000 (
b00 I
1K
1L
1P
b00000000000000000000000000101100 ]
b00000000000000000000000000101000 ^
b00000000000000010010010000000011 _
b00000000000000000000000001111100 `
b00000000000000000000000010100011 b
b00000000000000000000000000000000 c
b00000000000000000000000000000000 d
b00000000000000000000000000000000 e
b0010 f
b00000000000000000000000001111100 h
b00000000000000000000000010100011 i
b0000011 j
b01000 l
#74
b00000000000000000000000010100011 1
0P
b00000000000000000000000010100011 Y
#75
b00000000000000000000000000101100 #
b00000000000000000000000000110000 $
b000 &
b00100 (
b11 I
0K
0L
1P
b00000000000000000000000000110000 ]
b00000000000000000000000000110100 ^
b00000000010000010000000100010011 _
b00000000000000000000000010000000 b
b00000000000000000000000000000100 c
b00000000000000000000000000001000 d
b00000000000000000000000000000100 e
b00000000000000000000000010000000 h
b0010011 j
b00010 l
#76
b00000000000000000000000010000000 +
0P
b00000000000000000000000010000000 \
b00000000000000000000000010000000 `
b00000000000000000000000010000100 b
b00000000000000000000000010000100 h
#77
b00000000000000000000000000110000 #
b00000000000000000000000000110100 $
b00000 '
b00101 (
1P
b00000000000000000000000000110100 ]
b00000000000000000000000000111010 ^
b00000000010100000000010010010011 _
b00000000000000000000000000000000 `
b00000000000000000000000000000111 a
b00000000000000000000000000000101 b
b00000000000000000000000000000101 c
b00000000000000000000000000001010 d
b00000000000000000000000000000101 e
b00000000000000000000000000000101 h
b01001 l
#78
b00000000000000000000000000000101 2
0P
b00000000000000000000000000000101 Z
#79
b00000000000000000000000000110100 #
b00000000000000000000000000111000 $
1%
b10110 (
1P
b00000000000000000000000000111000 ]
b00000000000000000000000000100000 ^
b11111111011000000000100100010011 _
b00000000000000000000000000000000 a
b11111111111111111111111111110110 b
b11111111111111111111111111110110 c
b11111111111111111111111111101100 d
b11111111111111111111111111110110 e
b11111111111111111111111111110110 h
b10010 l
#80
b11111111111111111111111111110110 ;
0P
b11111111111111111111111111110110 [
#81
b00000000000000000000000000111000 #
b00000000000000000000000000111100 $
b01001 '
b10010 (
b10 I
0N
1P
b00000000000000000000000000111100 ]
b00000000000000000000000000111000 ^
b01000001001001001000001110110011 _
b00000000000000000000000000000101 `
b11111111111111111111111111110110 a
b00000000000000000000000000001111 b
b00000000000000000000000000000000 c
b00000000000000000000000000000000 d
b0110 f
b00000000000000000000000000001111 h
b0110011 j
b00111 l
#82
b00000000000000000000000000001111 0
0P
b00000000000000000000000000001111 T
#83
b00000000000000000000000000111100 #
b00000000000000000000000001000000 $
0%
b111 &
1P
b00000000000000000000000001000000 ]
b00000000000000000000000000111100 ^
b00000001001001001111111000110011 _
b00000000000000000000000000000100 b
b0000 f
b00000000000000000000000000000100 h
b11100 l
#84
b00000000000000000000000000000100 E
0P
b00000000000000000000000000000100 U
#85
b00000000000000000000000001000000 #
b00000000000000000000000001000100 $
b110 &
1P
b00000000000000000000000001000100 ]
b00000000000000000000000001000000 ^
b00000001001001001110111010110011 _
b11111111111111111111111111110111 b
b0001 f
b11111111111111111111111111110111 h
b11101 l
#86
b11111111111111111111111111110111 F
0P
b11111111111111111111111111110111 V
#87
b00000000000000000000000001000100 #
b00000000000000000000000001001000 $
b010 &
1P
b00000000000000000000000001001000 ]
b00000000000000000000000001000100 ^
b00000001001001001010111100110011 _
b00000000000000000000000000000000 b
b0111 f
1g
b00000000000000000000000000000000 h
b11110 l
#88
0P
#89
b00000000000000000000000001001000 #
b00000000000000000000000001001100 $
b111 &
b10100 (
b11 I
1N
1P
b00000000000000000000000001001100 ]
b00000000000000000000000001110000 ^
b00000001010001001111111110010011 _
b00000000000000000000000000000000 a
b00000000000000000000000000000100 b
b00000000000000000000000000010100 c
b00000000000000000000000000101000 d
b00000000000000000000000000010100 e
b0000 f
0g
b00000000000000000000000000000100 h
b0010011 j
b11111 l
#90
b00000000000000000000000000000100 H
0P
b00000000000000000000000000000100 X
#91
b00000000000000000000000001001100 #
b00000000000000000000000001010000 $
b000 &
b00000 '
b00000 (
b00 I
0N
0O
1P
b00000000000000000000000001010000 ]
b00000000000000000000000001001100 ^
b00000000000000000000000000000000 _
b00000000000000000000000000000000 `
b00000000000000000000000000000000 b
b00000000000000000000000000000000 c
b00000000000000000000000000000000 d
b00000000000000000000000000000000 e
b0010 f
1g
b00000000000000000000000000000000 h
b0000000 j
b00000 l
#92
0P
#93
b00000000000000000000000001010000 #
b00000000000000000000000001010100 $
1P
b00000000000000000000000001010100 ]
b00000000000000000000000001010000 ^
#94
0P
#95
b00000000000000000000000001010100 #
b00000000000000000000000001011000 $
1P
b00000000000000000000000001011000 ]
b00000000000000000000000001010100 ^
#96
0P
#97
b00000000000000000000000001011000 #
b00000000000000000000000001011100 $
1P
b00000000000000000000000001011100 ]
b00000000000000000000000001011000 ^
#98
0P
